{
  "index": {
    "number_of_shards": "1",
    "number_of_replicas": "0",
    "analysis": {
      "filter": {
        "nGram_filter": {
          "type": "edge_ngram",
          "min_gram": 2,
          "max_gram": 20
        }
      },
      "analyzer": {
        "nGram_analyzer": {
          "type": "custom",
          "tokenizer": "standard",
          "filter": [
            "lowercase",
            "nGram_filter"
          ]
        },
        "whitespace_analyzer": {
          "type": "custom",
          "tokenizer": "whitespace",
          "filter": [
            "lowercase",
            "asciifolding"
          ]
        }
      }
    }
  }
}